<svg xmlns="http://www.w3.org/2000/svg" xmlns:xlink="http://www.w3.org/1999/xlink" viewBox="0 0 192 192">
  <defs>
    <style>
      .cls-1 {
        fill: none;
      }

      .cls-2 {
        fill: #e8e7e7;
      }

      .cls-3 {
        fill: #bc243f;
      }

      .cls-4 {
        clip-path: url(#clip-path);
      }

      .cls-5 {
        fill: #fefefe;
      }

      .cls-6 {
        fill: #db2b42;
      }

      .cls-7 {
        fill: #e95071;
      }

      .cls-8 {
        fill: #91c740;
      }
    </style>
    <clipPath id="clip-path">
      <path id="Clip_6" data-name="Clip 6" class="cls-1" d="M0,192H192V0H0Z"/>
    </clipPath>
  </defs>
  <g id="Email-sent" transform="translate(-624 -443)">
    <path id="Fill_1" data-name="Fill 1" class="cls-2" d="M192,96A96,96,0,1,1,96,0a96,96,0,0,1,96,96" transform="translate(624 443)"/>
    <path id="Fill_3" data-name="Fill 3" class="cls-3" d="M.188,39,66.121,0l65.933,39-.187,77.931H0Z" transform="translate(654.066 478.097)"/>
    <path id="Clip_6-2" data-name="Clip 6" class="cls-1" d="M0,192H192V0H0Z" transform="translate(624 443)"/>
    <g id="Group_11" data-name="Group 11" class="cls-4" transform="translate(624 443)">
      <path id="Fill_5" data-name="Fill 5" class="cls-5" d="M0,99.12H108.1V0H0Z" transform="translate(42.038 34.243)"/>
      <path id="Fill_7" data-name="Fill 7" class="cls-6" d="M0,39l65.933,39V0Z" transform="translate(95.999 74.032)"/>
      <path id="Fill_8" data-name="Fill 8" class="cls-6" d="M0,0V77.993L65.933,39Z" transform="translate(30.066 74.032)"/>
      <path id="Fill_9" data-name="Fill 9" class="cls-7" d="M0,39H131.867L65.933,0Z" transform="translate(30.066 113.028)"/>
      <path id="Fill_10" data-name="Fill 10" class="cls-8" d="M15.088,37.015,0,21.927l6.364-6.364,8.724,8.724L39.375,0l6.364,6.364Z" transform="translate(75.575 52.318)"/>
    </g>
  </g>
</svg>
