{
  "type": "postgres",
  "host": "172.18.0.2",
  "port": 5432,
  "username": "postgres",
  "password": "password",
  "database": "rfmhealthapp",
  "entities": ["src/entity/**.entity{.ts,.js}"],
  "synchronize": true
}